{
  "presets": [
    [
      "@babel/preset-env",
      {
        "useBuiltIns": "usage",
        "corejs": 3,
        "targets": "ie 11, chrome 58, > 1%"
      }
    ],
    "@babel/preset-react",
    "@emotion/babel-preset-css-prop"
  ],
  "plugins": ["@babel/plugin-transform-runtime", "@babel/plugin-syntax-dynamic-import"],
  "sourceType": "unambiguous"
}
